{
  "build": {
    "arduino": {
        "ldscript": "flash_with_bootloader.ld"
    },
    "core": "adafruit",
    "cpu": "cortex-m0plus",
    "extra_flags": "-DARDUINO_SAMD_ZERO -DARDUINO_SAMD_FEATHER_M0 -DARM_MATH_CM0PLUS -D__SAMD21G18A__",
    "f_cpu": "48000000L",
    "hwids": [
      [
        "0x239A",
        "0x800B"
      ],
      [
        "0x239A",
        "0x000B"
      ],
      [
        "0x239A",
        "0x0015"
      ]
    ],
    "mcu": "samd21g18a",
    "system": "samd",
    "usb_product": "Adafruit Feather M0",
    "variant": "feather_m0",
    "zephyr": {
       "variant": "adafruit_feather_m0_basic_proto"
    }
  },
  "debug": {
    "jlink_device": "ATSAMD21G18",
    "openocd_chipname": "at91samd21g18",
    "openocd_target": "at91samdXX",
    "svd_path": "ATSAMD21G18A.svd"
  },
  "frameworks": [
    "arduino",
    "cmsis",
    "zephyr"
  ],
  "name": "Adafruit Feather M0",
  "upload": {
    "disable_flushing": true,
    "maximum_ram_size": 32768,
    "maximum_size": 262144,
    "native_usb": true,
    "offset_address": "0x2000",
    "protocol": "sam-ba",
    "protocols": [
      "sam-ba",
      "blackmagic",
      "jlink",
      "atmel-ice"
    ],
    "require_upload_port": true,
    "use_1200bps_touch": true,
    "wait_for_upload_port": true
  },
  "url": "https://www.adafruit.com/product/2772",
  "vendor": "Adafruit"
}
