{
  "build": {
    "arduino": {
        "ldscript": "flash_with_bootloader.ld"
    },
    "core": "adafruit",
    "cpu": "cortex-m4",
    "extra_flags": [
      "-DARDUINO_PYPORTAL_M4",
      "-DADAFRUIT_PYPORTAL",
      "-D__SAMD51J20A__",
      "-D__SAMD51__",
      "-D__FPU_PRESENT",
      "-DARM_MATH_CM4",
      "-DCRYSTALLESS",
      "-DENABLE_CACHE",
      "-DVARIANT_QSPI_BAUD_DEFAULT=50000000"
    ],
    "f_cpu": "120000000L",
    "hwids": [
      [
        "0x239A",
        "0x8035"
      ],
      [
        "0x239A",
        "0x0035"
      ]
    ],
    "mcu": "samd51j20a",
    "system": "samd",
    "usb_product": "Adafruit PyPortal M4",
    "variant": "pyportal_m4"
  },
  "debug": {
    "jlink_device": "ATSAMD51J20",
    "openocd_chipname": "at91samd51j20",
    "openocd_target": "atsame5x",
    "svd_path": "ATSAMD51J20A.svd"
  },
  "frameworks": [
    "arduino",
    "cmsis"
  ],
  "name": "Adafruit PyPortal M4",
  "upload": {
    "disable_flushing": true,
    "maximum_ram_size": 262144,
    "maximum_size": 1048576,
    "native_usb": true,
    "offset_address": "0x4000",
    "protocol": "sam-ba",
    "protocols": [
      "sam-ba",
      "jlink",
      "atmel-ice"
    ],
    "require_upload_port": true,
    "use_1200bps_touch": true,
    "wait_for_upload_port": true
  },
  "url": "https://www.adafruit.com/product/4116",
  "vendor": "Adafruit"
}
