{
  "build": {
    "arduino": {
        "ldscript": "flash_with_bootloader.ld"
    },
    "core": "adafruit",
    "cpu": "cortex-m4",
    "extra_flags": [
      "-DARDUINO_TRELLIS_M4",
      "-DADAFRUIT_TRELLIS_M4_EXPRESS",
      "-D__SAMD51J19A__",
      "-D__SAMD51__",
      "-D__FPU_PRESENT",
      "-DARM_MATH_CM4",
      "-DENABLE_CACHE",
      "-DVARIANT_QSPI_BAUD_DEFAULT=50000000",
      "-DCRYSTALLESS"
    ],
    "f_cpu": "120000000L",
    "hwids": [
      [
        "0x239A",
        "0x802F"
      ],
      [
        "0x239A",
        "0x002F"
      ]
    ],
    "mcu": "samd51j19a",
    "system": "samd",
    "usb_product": "Adafruit Trellis M4",
    "variant": "trellis_m4"
  },
  "debug": {
    "jlink_device": "ATSAMD51J19",
    "openocd_chipname": "at91samd51j19",
    "openocd_target": "atsame5x",
    "svd_path": "ATSAMD51J19A.svd"
  },
  "frameworks": [
    "arduino",
    "cmsis"
  ],
  "name": "Adafruit Trellis M4",
  "upload": {
    "disable_flushing": true,
    "maximum_ram_size": 196608,
    "maximum_size": 524288,
    "native_usb": true,
    "offset_address": "0x4000",
    "protocol": "sam-ba",
    "protocols": [
      "sam-ba",
      "jlink",
      "atmel-ice"
    ],
    "require_upload_port": true,
    "use_1200bps_touch": true,
    "wait_for_upload_port": true
  },
  "url": "https://www.adafruit.com/product/4064",
  "vendor": "Adafruit"
}
