{
  "build": {
    "arduino": {
        "ldscript": "flash_with_bootloader.ld"
    },
    "core": "moteino",
    "cpu": "cortex-m0plus",
    "extra_flags": "-DARDUINO_SAMD_ZERO -D__SAMD21G18A__ -DVERY_LOW_POWER -DCRYSTALLESS",
    "f_cpu": "48000000L",
    "hwids": [
      [
        "0x04d8",
        "0xeee5"
      ],
      [
        "0x04d8",
        "0xeee4"
      ]
    ],
    "mcu": "samd21g18a",
    "usb_product": "LowPowerLab CurrentRanger",
    "variant": "currentranger_m0"
  },
  "frameworks": [
    "arduino",
    "cmsis"
  ],
  "name": "LowPowerLab CurrentRanger",
  "upload": {
    "disable_flushing": true,
    "maximum_ram_size": 32768,
    "maximum_size": 262144,
    "native_usb": true,
    "offset_address": "0x2000",
    "protocol": "sam-ba",
    "require_upload_port": false,
    "use_1200bps_touch": true,
    "wait_for_upload_port": true
  },
  "url": "https://lowpowerlab.com/shop/product/152?search=CurrentRanger",
  "vendor": "LowPowerLab"
}
