{
  "build": {
    "arduino": {
        "ldscript": "flash.ld"
    },
    "core": "arduino",
    "cpu": "cortex-m3",
    "extra_flags": "-w -D__SAM3X8E__ -DARDUINO_SAM_DIGIX",
    "f_cpu": "84000000L",
    "hwids": [
      [
        "0x16D0",
        "0x078A"
      ]
    ],
    "mcu": "at91sam3x8e",
    "usb_product": "Digistump DigiX",
    "variant": "arduino_due_x"
  },
  "connectivity": [
    "can"
  ],
  "debug": {
    "jlink_device": "ATSAM3X8E",
    "openocd_chipname": "at91sam3X8E",
    "openocd_target": "at91sam3ax_8x",
    "svd_path": "ATSAM3X8E.svd"
  },
  "frameworks": [
    "arduino",
    "cmsis"
  ],
  "name": "Digistump DigiX",
  "upload": {
    "disable_flushing": true,
    "maximum_ram_size": 98304,
    "maximum_size": 524288,
    "native_usb": true,
    "protocol": "sam-ba",
    "protocols": [
      "sam-ba",
      "jlink",
      "blackmagic",
      "atmel-ice",
      "stlink"
    ],
    "require_upload_port": true,
    "use_1200bps_touch": true,
    "wait_for_upload_port": true
  },
  "url": "http://digistump.com/products/50",
  "vendor": "Digistump"
}
