{
  "build": {
    "arduino": {
        "ldscript": "flash_with_bootloader.ld"
    },
    "core": "arduino",
    "cpu": "cortex-m0plus",
    "extra_flags": "-DARDUINO_SAMD_ZERO -D__SAMD21G18A__",
    "f_cpu": "48000000L",
    "hwids": [
      [
        "0x2A03",
        "0x804F"
      ],
      [
        "0x2A03",
        "0x004D"
      ],
      [
        "0x2A03",
        "0x804D"
      ],
      [
        "0x2A03",
        "0x004F"
      ]
    ],
    "mcu": "samd21g18a",
    "usb_product": "Arduino M0 Pro",
    "variant": "arduino_mzero"
  },
  "debug": {
    "jlink_device": "ATSAMD21G18",
    "onboard_tools": [
      "cmsis-dap"
    ],
    "openocd_chipname": "at91samd21g18",
    "openocd_target": "at91samdXX",
    "svd_path": "ATSAMD21G18A.svd"
  },
  "frameworks": [
    "arduino",
    "cmsis"
  ],
  "name": "Arduino M0 Pro (Native USB Port)",
  "upload": {
    "disable_flushing": true,
    "maximum_ram_size": 32768,
    "maximum_size": 262144,
    "offset_address": "0x4000",
    "protocol": "stk500v2",
    "protocols": [
      "stk500v2",
      "blackmagic",
      "jlink",
      "atmel-ice"
    ],
    "require_upload_port": true,
    "speed": 57600,
    "use_1200bps_touch": true,
    "wait_for_upload_port": true
  },
  "url": "https://www.arduino.cc/en/Main/ArduinoBoardM0PRO",
  "vendor": "Arduino"
}
