{
  "build": {
    "cpu": "cortex-m0plus",
    "extra_flags": "-D__SAMC21J18A__",
    "f_cpu": "48000000L",
    "mcu": "samc21j18a"
  },
  "debug": {
    "jlink_device": "ATSAMC21J18",
    "onboard_tools": [
      "cmsis-dap"
    ],
    "openocd_chipname": "at91samc21j18",
    "openocd_target": "at91samdXX",
    "svd_path": "ATSAMC21J18A.svd"
  },
  "frameworks": [
    "cmsis"
  ],
  "name": "Atmel SAMC21-XPRO",
  "upload": {
    "maximum_ram_size": 32768,
    "maximum_size": 262144,
    "protocol": "cmsis-dap",
    "protocols": [
      "cmsis-dap",
      "blackmagic",
      "jlink",
      "atmel-ice"
    ]
  },
  "url": "https://www.microchip.com/DevelopmentTools/ProductDetails/PartNO/ATSAMC21-XPRO",
  "vendor": "Atmel"
}