{
  "build": {
    "cpu": "cortex-m0plus",
    "extra_flags": "-D__SAMD21J18A__",
    "f_cpu": "48000000L",
    "mcu": "samd21j18a",
    "zephyr": {
      "variant": "atsamd21_xpro"
    }
  },
  "debug": {
    "jlink_device": "ATSAMD21J18",
    "onboard_tools": [
      "cmsis-dap"
    ],
    "openocd_chipname": "at91samd21j18",
    "openocd_target": "at91samdXX",
    "svd_path": "ATSAMD21J18A.svd"
  },
  "frameworks": [
    "cmsis",
    "mbed",
    "zephyr"
  ],
  "name": "Atmel SAMD21-XPRO",
  "upload": {
    "maximum_ram_size": 32768,
    "maximum_size": 262144,
    "protocol": "cmsis-dap",
    "protocols": [
      "cmsis-dap",
      "blackmagic",
      "jlink",
      "atmel-ice"
    ]
  },
  "url": "https://developer.mbed.org/platforms/SAMD21-XPRO/",
  "vendor": "Atmel"
}
