{
  "build": {
    "arduino": {
        "ldscript": "flash_without_bootloader.ld"
    },
    "core": "arduino",
    "cpu": "cortex-m0plus",
    "extra_flags": "-D__SAMD21G18A__",
    "f_cpu": "48000000L",
    "hwids": [
      [
        "0x03EB",
        "0x2111"
      ]
    ],
    "mcu": "samd21g18a",
    "usb_product": "Atmel ATSAMW25-XPRO",
    "variant": "w25_xplained_pro"
  },
  "connectivity": [
    "wifi"
  ],
  "debug": {
    "jlink_device": "ATSAMD21G18",
    "onboard_tools": [
      "cmsis-dap"
    ],
    "openocd_chipname": "at91samd21g18",
    "openocd_target": "at91samdXX",
    "svd_path": "ATSAMD21G18A.svd"
  },
  "frameworks": [
    "arduino",
    "cmsis",
    "mbed"
  ],
  "name": "Atmel ATSAMW25-XPRO",
  "upload": {
    "maximum_ram_size": 32768,
    "maximum_size": 262144,
    "protocol": "cmsis-dap",
    "protocols": [
      "cmsis-dap",
      "blackmagic",
      "jlink",
      "atmel-ice"
    ]
  },
  "url": "https://developer.mbed.org/platforms/SAMW25-XPRO/",
  "vendor": "Atmel"
}
