{
    "build": {
      "cpu": "cortex-m4",
      "extra_flags": "-D__SAME54P19A__",
      "f_cpu": "120000000L",
      "mcu": "same54p19a"
    },
    "debug": {
      "jlink_device": "ATSAME54P19A",
      "openocd_chipname": "at91same54p19",
      "openocd_target": "atsame5x",
      "svd_path": "ATSAME54P19A.svd"
    },
    "frameworks": [
      "cmsis"
    ],
    "name": "Generic ATSAME54P19A",
    "upload": {
      "maximum_ram_size": 196608,
      "maximum_size": 524288,
      "protocol": "atmel-ice",
      "protocols": [
        "sam-ba",
        "cmsis-dap",
        "blackmagic",
        "jlink",
        "atmel-ice"
      ]
    },
    "url": "https://www.microchip.com/en-us/product/ATSAME51J19A",
    "vendor": "Microchip"
  }
