{
  "build": {
    "arduino": {
        "ldscript": "flash_with_bootloader.ld"
    },
    "core": "sodaq",
    "cpu": "cortex-m0plus",
    "extra_flags": "-DVERY_LOW_POWER -D__SAMD21J18A__ -DARDUINO_SODAQ_SARA",
    "f_cpu": "48000000L",
    "hwids": [
      [
        "0x2341",
        "0x804d"
      ],
      [
        "0x2341",
        "0x004d"
      ]
    ],
    "mcu": "samd21j18a",
    "system": "samd",
    "usb_product": "SODAQ SARA",
    "variant": "sodaq_sara"
  },
  "connectivity": [
    "NB-IoT",
    "GPS"
  ],
  "debug": {
    "jlink_device": "ATSAMD21J18",
    "openocd_chipname": "at91samd21j18",
    "openocd_target": "at91samdXX",
    "svd_path": "ATSAMD21J18A.svd"
  },
  "frameworks": [
    "arduino",
    "cmsis"
  ],
  "name": "SODAQ SARA",
  "upload": {
    "disable_flushing": true,
    "maximum_ram_size": 32768,
    "maximum_size": 262144,
    "native_usb": true,
    "protocol": "sam-ba",
    "protocols": [
      "sam-ba",
      "blackmagic",
      "jlink",
      "atmel-ice"
    ],
    "require_upload_port": true,
    "use_1200bps_touch": true,
    "wait_for_upload_port": true
  },
  "url": "https://support.sodaq.com/sodaq-one/sara/",
  "vendor": "SODAQ"
}
